<svg width="64" height="64" viewBox="0 0 64 64" fill="none" xmlns="http://www.w3.org/2000/svg">
<rect width="64" height="64" fill="#E5E5E5"/>
<g clip-path="url(#clip0_2369_9404)">
<rect width="1925" height="8949" transform="translate(-765 -3703)" fill="white"/>
<rect width="64" height="64" rx="6" fill="#F0B051"/>
<path fill-rule="evenodd" clip-rule="evenodd" d="M39.5 11.2381L45.6548 9L51.8095 11.2381V18.3195C51.8095 20.7335 49.0672 22.4851 46.3896 24.1954C46.1434 24.3527 45.8977 24.5096 45.6548 24.6667C45.4118 24.5096 45.1662 24.3527 44.92 24.1954C42.2423 22.4851 39.5 20.7335 39.5 18.3195V11.2381ZM15 27.9048C15 19.8703 21.5132 13.3571 29.5476 13.3571C32.435 13.3571 35.1182 14.197 37.381 15.6477V19.3195C37.381 21.1002 38.4692 22.5013 39.7589 23.6209C40.86 24.5253 41.9213 25.1514 42.9908 25.7823C43.3343 25.9849 43.6786 26.1881 44.0253 26.401C44.0762 26.8956 44.0952 27.3968 44.0952 27.9048C44.0952 30.3263 43.4652 32.6103 42.4167 34.619L32.1483 52.477C30.9948 54.4831 28.1004 54.4831 26.9469 52.477L16.6786 34.619C15.63 32.6103 15 30.3263 15 27.9048ZM35.7024 27.9048C35.7024 24.5056 32.9468 21.75 29.5476 21.75C26.1485 21.75 23.3929 24.5056 23.3929 27.9048C23.3929 31.3039 26.1485 34.0595 29.5476 34.0595C32.9468 34.0595 35.7024 31.3039 35.7024 27.9048ZM49.7967 14.4739C50.0803 14.1216 50.0653 13.5679 49.7633 13.2371C49.4614 12.9063 48.9867 12.9238 48.7032 13.2761L45.0473 17.819L43.3168 15.4894C43.0455 15.1243 42.5718 15.0848 42.2588 15.4013C41.9458 15.7178 41.912 16.2704 42.1833 16.6356L44.4583 19.6981C44.5973 19.8853 44.7978 19.9949 45.0101 19.9998C45.2224 20.0048 45.4265 19.9045 45.5718 19.7239L49.7967 14.4739Z" fill="white"/>
</g>
<defs>
<clipPath id="clip0_2369_9404">
<rect width="1925" height="8949" fill="white" transform="translate(-765 -3703)"/>
</clipPath>
</defs>
</svg>
